%YAML 1.1
%TAG !u! tag:unity3d.com,2011:
--- !u!74 &7400000
AnimationClip:
  m_ObjectHideFlags: 0
  m_CorrespondingSourceObject: {fileID: 0}
  m_PrefabInstance: {fileID: 0}
  m_PrefabAsset: {fileID: 0}
  m_Name: player_main_menu_idle
  serializedVersion: 6
  m_Legacy: 0
  m_Compressed: 0
  m_UseHighQualityCurve: 1
  m_RotationCurves: []
  m_CompressedRotationCurves: []
  m_EulerCurves: []
  m_PositionCurves: []
  m_ScaleCurves: []
  m_FloatCurves: []
  m_PPtrCurves:
  - curve:
    - time: 0
      value: {fileID: 21300000, guid: 5cd1c7cb2781ca54ea997f8ac4bb0cee, type: 3}
    - time: 3
      value: {fileID: 21300000, guid: d7810d8bd0c135044b90c3fe044aed57, type: 3}
    - time: 3.0166667
      value: {fileID: 21300000, guid: a32c3bb8c0939db4db8349673d11ccdd, type: 3}
    - time: 3.0333333
      value: {fileID: 21300000, guid: 985ff3cd41eec7c4cb0698dcce54e54f, type: 3}
    - time: 3.05
      value: {fileID: 21300000, guid: 27801cdf15a821a49b80fffae47b67bb, type: 3}
    - time: 3.0666666
      value: {fileID: 21300000, guid: 985ff3cd41eec7c4cb0698dcce54e54f, type: 3}
    - time: 3.0833333
      value: {fileID: 21300000, guid: a32c3bb8c0939db4db8349673d11ccdd, type: 3}
    - time: 3.1
      value: {fileID: 21300000, guid: d7810d8bd0c135044b90c3fe044aed57, type: 3}
    - time: 3.1166666
      value: {fileID: 21300000, guid: 5cd1c7cb2781ca54ea997f8ac4bb0cee, type: 3}
    - time: 5
      value: {fileID: 21300000, guid: 679f96d71a10d574e97a4a55f9c3ba88, type: 3}
    - time: 6
      value: {fileID: 21300000, guid: 679f96d71a10d574e97a4a55f9c3ba88, type: 3}
    - time: 8.366667
      value: {fileID: 21300000, guid: d7810d8bd0c135044b90c3fe044aed57, type: 3}
    - time: 8.383333
      value: {fileID: 21300000, guid: a32c3bb8c0939db4db8349673d11ccdd, type: 3}
    - time: 8.4
      value: {fileID: 21300000, guid: 985ff3cd41eec7c4cb0698dcce54e54f, type: 3}
    - time: 8.416667
      value: {fileID: 21300000, guid: 27801cdf15a821a49b80fffae47b67bb, type: 3}
    - time: 8.433333
      value: {fileID: 21300000, guid: 985ff3cd41eec7c4cb0698dcce54e54f, type: 3}
    - time: 8.45
      value: {fileID: 21300000, guid: a32c3bb8c0939db4db8349673d11ccdd, type: 3}
    - time: 8.466666
      value: {fileID: 21300000, guid: d7810d8bd0c135044b90c3fe044aed57, type: 3}
    - time: 8.483334
      value: {fileID: 21300000, guid: 5cd1c7cb2781ca54ea997f8ac4bb0cee, type: 3}
    - time: 10
      value: {fileID: 21300000, guid: a32c3bb8c0939db4db8349673d11ccdd, type: 3}
    - time: 12
      value: {fileID: 21300000, guid: 985ff3cd41eec7c4cb0698dcce54e54f, type: 3}
    - time: 12.133333
      value: {fileID: 21300000, guid: a32c3bb8c0939db4db8349673d11ccdd, type: 3}
    - time: 12.316667
      value: {fileID: 21300000, guid: d7810d8bd0c135044b90c3fe044aed57, type: 3}
    - time: 12.516666
      value: {fileID: 21300000, guid: 95e978a2b4181e248821e767aca884bf, type: 3}
    - time: 14.033334
      value: {fileID: 21300000, guid: 95e978a2b4181e248821e767aca884bf, type: 3}
    attribute: m_Sprite
    path: 
    classID: 212
    script: {fileID: 0}
  m_SampleRate: 60
  m_WrapMode: 0
  m_Bounds:
    m_Center: {x: 0, y: 0, z: 0}
    m_Extent: {x: 0, y: 0, z: 0}
  m_ClipBindingConstant:
    genericBindings:
    - serializedVersion: 2
      path: 0
      attribute: 0
      script: {fileID: 0}
      typeID: 212
      customType: 23
      isPPtrCurve: 1
    pptrCurveMapping:
    - {fileID: 21300000, guid: 5cd1c7cb2781ca54ea997f8ac4bb0cee, type: 3}
    - {fileID: 21300000, guid: d7810d8bd0c135044b90c3fe044aed57, type: 3}
    - {fileID: 21300000, guid: a32c3bb8c0939db4db8349673d11ccdd, type: 3}
    - {fileID: 21300000, guid: 985ff3cd41eec7c4cb0698dcce54e54f, type: 3}
    - {fileID: 21300000, guid: 27801cdf15a821a49b80fffae47b67bb, type: 3}
    - {fileID: 21300000, guid: 985ff3cd41eec7c4cb0698dcce54e54f, type: 3}
    - {fileID: 21300000, guid: a32c3bb8c0939db4db8349673d11ccdd, type: 3}
    - {fileID: 21300000, guid: d7810d8bd0c135044b90c3fe044aed57, type: 3}
    - {fileID: 21300000, guid: 5cd1c7cb2781ca54ea997f8ac4bb0cee, type: 3}
    - {fileID: 21300000, guid: 679f96d71a10d574e97a4a55f9c3ba88, type: 3}
    - {fileID: 21300000, guid: 679f96d71a10d574e97a4a55f9c3ba88, type: 3}
    - {fileID: 21300000, guid: d7810d8bd0c135044b90c3fe044aed57, type: 3}
    - {fileID: 21300000, guid: a32c3bb8c0939db4db8349673d11ccdd, type: 3}
    - {fileID: 21300000, guid: 985ff3cd41eec7c4cb0698dcce54e54f, type: 3}
    - {fileID: 21300000, guid: 27801cdf15a821a49b80fffae47b67bb, type: 3}
    - {fileID: 21300000, guid: 985ff3cd41eec7c4cb0698dcce54e54f, type: 3}
    - {fileID: 21300000, guid: a32c3bb8c0939db4db8349673d11ccdd, type: 3}
    - {fileID: 21300000, guid: d7810d8bd0c135044b90c3fe044aed57, type: 3}
    - {fileID: 21300000, guid: 5cd1c7cb2781ca54ea997f8ac4bb0cee, type: 3}
    - {fileID: 21300000, guid: a32c3bb8c0939db4db8349673d11ccdd, type: 3}
    - {fileID: 21300000, guid: 985ff3cd41eec7c4cb0698dcce54e54f, type: 3}
    - {fileID: 21300000, guid: a32c3bb8c0939db4db8349673d11ccdd, type: 3}
    - {fileID: 21300000, guid: d7810d8bd0c135044b90c3fe044aed57, type: 3}
    - {fileID: 21300000, guid: 95e978a2b4181e248821e767aca884bf, type: 3}
    - {fileID: 21300000, guid: 95e978a2b4181e248821e767aca884bf, type: 3}
  m_AnimationClipSettings:
    serializedVersion: 2
    m_AdditiveReferencePoseClip: {fileID: 0}
    m_AdditiveReferencePoseTime: 0
    m_StartTime: 0
    m_StopTime: 14.05
    m_OrientationOffsetY: 0
    m_Level: 0
    m_CycleOffset: 0
    m_HasAdditiveReferencePose: 0
    m_LoopTime: 1
    m_LoopBlend: 0
    m_LoopBlendOrientation: 0
    m_LoopBlendPositionY: 0
    m_LoopBlendPositionXZ: 0
    m_KeepOriginalOrientation: 0
    m_KeepOriginalPositionY: 1
    m_KeepOriginalPositionXZ: 0
    m_HeightFromFeet: 0
    m_Mirror: 0
  m_EditorCurves: []
  m_EulerEditorCurves: []
  m_HasGenericRootTransform: 0
  m_HasMotionFloatCurves: 0
  m_Events: []
