%YAML 1.1
%TAG !u! tag:unity3d.com,2011:
--- !u!1045 &1
EditorBuildSettings:
  m_ObjectHideFlags: 0
  serializedVersion: 2
  m_Scenes:
  - enabled: 1
    path: Assets/Scenes/game_preload.unity
    guid: 5a058cfefbae9f44ba0e4491b9098e13
  - enabled: 1
    path: Assets/Scenes/main_menu.unity
    guid: 43012551c3efbae45aa1b19cb5ee5912
  - enabled: 1
    path: Assets/Scenes/main_game_screen.unity
    guid: 48e24e27d7b43344a9abdb22ca2899f1
  - enabled: 1
    path: Assets/Scenes/animation_tests.unity
    guid: 0d3846f5bb7e8f94682d3474e7a45b04
  - enabled: 0
    path: Assets/Scenes/level_editor.unity
    guid: 9e9a9ce3e7cac614890513098b7371ea
  m_configObjects: {}
